%YAML 1.1
%TAG !u! tag:unity3d.com,2011:
--- !u!29 &1
OcclusionCullingSettings:
  m_ObjectHideFlags: 0
  serializedVersion: 2
  m_OcclusionBakeSettings:
    smallestOccluder: 5
    smallestHole: 0.25
    backfaceThreshold: 100
  m_SceneGUID: 00000000000000000000000000000000
  m_OcclusionCullingData: {fileID: 0}
--- !u!104 &2
RenderSettings:
  m_ObjectHideFlags: 0
  serializedVersion: 9
  m_Fog: 0
  m_FogColor: {r: 0.5, g: 0.5, b: 0.5, a: 1}
  m_FogMode: 3
  m_FogDensity: 0.01
  m_LinearFogStart: 0
  m_LinearFogEnd: 300
  m_AmbientSkyColor: {r: 0.212, g: 0.227, b: 0.259, a: 1}
  m_AmbientEquatorColor: {r: 0.114, g: 0.125, b: 0.133, a: 1}
  m_AmbientGroundColor: {r: 0.047, g: 0.043, b: 0.035, a: 1}
  m_AmbientIntensity: 1
  m_AmbientMode: 0
  m_SubtractiveShadowColor: {r: 0.42, g: 0.478, b: 0.627, a: 1}
  m_SkyboxMaterial: {fileID: 10304, guid: 0000000000000000f000000000000000, type: 0}
  m_HaloStrength: 0.5
  m_FlareStrength: 1
  m_FlareFadeSpeed: 3
  m_HaloTexture: {fileID: 0}
  m_SpotCookie: {fileID: 10001, guid: 0000000000000000e000000000000000, type: 0}
  m_DefaultReflectionMode: 0
  m_DefaultReflectionResolution: 128
  m_ReflectionBounces: 1
  m_ReflectionIntensity: 1
  m_CustomReflection: {fileID: 0}
  m_Sun: {fileID: 0}
  m_IndirectSpecularColor: {r: 0.3731193, g: 0.38073996, b: 0.35872698, a: 1}
  m_UseRadianceAmbientProbe: 0
--- !u!157 &3
LightmapSettings:
  m_ObjectHideFlags: 0
  serializedVersion: 12
  m_GIWorkflowMode: 1
  m_GISettings:
    serializedVersion: 2
    m_BounceScale: 1
    m_IndirectOutputScale: 1
    m_AlbedoBoost: 1
    m_EnvironmentLightingMode: 0
    m_EnableBakedLightmaps: 1
    m_EnableRealtimeLightmaps: 0
  m_LightmapEditorSettings:
    serializedVersion: 12
    m_Resolution: 2
    m_BakeResolution: 40
    m_AtlasSize: 1024
    m_AO: 0
    m_AOMaxDistance: 1
    m_CompAOExponent: 1
    m_CompAOExponentDirect: 0
    m_ExtractAmbientOcclusion: 0
    m_Padding: 2
    m_LightmapParameters: {fileID: 0}
    m_LightmapsBakeMode: 1
    m_TextureCompression: 1
    m_FinalGather: 0
    m_FinalGatherFiltering: 1
    m_FinalGatherRayCount: 256
    m_ReflectionCompression: 2
    m_MixedBakeMode: 2
    m_BakeBackend: 1
    m_PVRSampling: 1
    m_PVRDirectSampleCount: 32
    m_PVRSampleCount: 500
    m_PVRBounces: 2
    m_PVREnvironmentSampleCount: 500
    m_PVREnvironmentReferencePointCount: 2048
    m_PVRFilteringMode: 2
    m_PVRDenoiserTypeDirect: 0
    m_PVRDenoiserTypeIndirect: 0
    m_PVRDenoiserTypeAO: 0
    m_PVRFilterTypeDirect: 0
    m_PVRFilterTypeIndirect: 0
    m_PVRFilterTypeAO: 0
    m_PVREnvironmentMIS: 0
    m_PVRCulling: 1
    m_PVRFilteringGaussRadiusDirect: 1
    m_PVRFilteringGaussRadiusIndirect: 5
    m_PVRFilteringGaussRadiusAO: 2
    m_PVRFilteringAtrousPositionSigmaDirect: 0.5
    m_PVRFilteringAtrousPositionSigmaIndirect: 2
    m_PVRFilteringAtrousPositionSigmaAO: 1
    m_ExportTrainingData: 0
    m_TrainingDataDestination: TrainingData
    m_LightProbeSampleCountMultiplier: 4
  m_LightingDataAsset: {fileID: 0}
  m_LightingSettings: {fileID: 0}
--- !u!196 &4
NavMeshSettings:
  serializedVersion: 2
  m_ObjectHideFlags: 0
  m_BuildSettings:
    serializedVersion: 2
    agentTypeID: 0
    agentRadius: 0.5
    agentHeight: 2
    agentSlope: 45
    agentClimb: 0.4
    ledgeDropHeight: 0
    maxJumpAcrossDistance: 0
    minRegionArea: 2
    manualCellSize: 0
    cellSize: 0.16666667
    manualTileSize: 0
    tileSize: 256
    accuratePlacement: 0
    maxJobWorkers: 0
    preserveTilesOutsideBounds: 0
    debug:
      m_Flags: 0
  m_NavMeshData: {fileID: 0}
--- !u!1 &150469355
GameObject:
  m_ObjectHideFlags: 0
  m_CorrespondingSourceObject: {fileID: 0}
  m_PrefabInstance: {fileID: 0}
  m_PrefabAsset: {fileID: 0}
  serializedVersion: 6
  m_Component:
  - component: {fileID: 150469357}
  - component: {fileID: 150469356}
  m_Layer: 0
  m_Name: HelpGUI
  m_TagString: Untagged
  m_Icon: {fileID: 0}
  m_NavMeshLayer: 0
  m_StaticEditorFlags: 0
  m_IsActive: 1
--- !u!114 &150469356
MonoBehaviour:
  m_ObjectHideFlags: 0
  m_CorrespondingSourceObject: {fileID: 0}
  m_PrefabInstance: {fileID: 0}
  m_PrefabAsset: {fileID: 0}
  m_GameObject: {fileID: 150469355}
  m_Enabled: 1
  m_EditorHideFlags: 0
  m_Script: {fileID: 11500000, guid: 24d63a048e7b347889124bcd75b7077f, type: 3}
  m_Name: 
  m_EditorClassIdentifier: 
  shooter: {fileID: 1350794672}
--- !u!4 &150469357
Transform:
  m_ObjectHideFlags: 0
  m_CorrespondingSourceObject: {fileID: 0}
  m_PrefabInstance: {fileID: 0}
  m_PrefabAsset: {fileID: 0}
  m_GameObject: {fileID: 150469355}
  m_LocalRotation: {x: 0, y: 0, z: 0, w: 1}
  m_LocalPosition: {x: -0.51594657, y: 0.7178306, z: 3.0819778}
  m_LocalScale: {x: 1, y: 1, z: 1}
  m_Children: []
  m_Father: {fileID: 0}
  m_RootOrder: 3
  m_LocalEulerAnglesHint: {x: 0, y: 0, z: 0}
--- !u!1001 &559202760
PrefabInstance:
  m_ObjectHideFlags: 0
  serializedVersion: 2
  m_Modification:
    m_TransformParent: {fileID: 0}
    m_Modifications:
    - target: {fileID: 5448930617850174012, guid: 6ac47267d05b143aa98fa1dd87994aad, type: 3}
      propertyPath: m_RootOrder
      value: 2
      objectReference: {fileID: 0}
    - target: {fileID: 5448930617850174012, guid: 6ac47267d05b143aa98fa1dd87994aad, type: 3}
      propertyPath: m_LocalPosition.x
      value: -0.51594657
      objectReference: {fileID: 0}
    - target: {fileID: 5448930617850174012, guid: 6ac47267d05b143aa98fa1dd87994aad, type: 3}
      propertyPath: m_LocalPosition.y
      value: 0.7178306
      objectReference: {fileID: 0}
    - target: {fileID: 5448930617850174012, guid: 6ac47267d05b143aa98fa1dd87994aad, type: 3}
      propertyPath: m_LocalPosition.z
      value: 3.0819778
      objectReference: {fileID: 0}
    - target: {fileID: 5448930617850174012, guid: 6ac47267d05b143aa98fa1dd87994aad, type: 3}
      propertyPath: m_LocalRotation.w
      value: 1
      objectReference: {fileID: 0}
    - target: {fileID: 5448930617850174012, guid: 6ac47267d05b143aa98fa1dd87994aad, type: 3}
      propertyPath: m_LocalRotation.x
      value: 0
      objectReference: {fileID: 0}
    - target: {fileID: 5448930617850174012, guid: 6ac47267d05b143aa98fa1dd87994aad, type: 3}
      propertyPath: m_LocalRotation.y
      value: 0
      objectReference: {fileID: 0}
    - target: {fileID: 5448930617850174012, guid: 6ac47267d05b143aa98fa1dd87994aad, type: 3}
      propertyPath: m_LocalRotation.z
      value: 0
      objectReference: {fileID: 0}
    - target: {fileID: 5448930617850174012, guid: 6ac47267d05b143aa98fa1dd87994aad, type: 3}
      propertyPath: m_LocalEulerAnglesHint.x
      value: 0
      objectReference: {fileID: 0}
    - target: {fileID: 5448930617850174012, guid: 6ac47267d05b143aa98fa1dd87994aad, type: 3}
      propertyPath: m_LocalEulerAnglesHint.y
      value: 0
      objectReference: {fileID: 0}
    - target: {fileID: 5448930617850174012, guid: 6ac47267d05b143aa98fa1dd87994aad, type: 3}
      propertyPath: m_LocalEulerAnglesHint.z
      value: 0
      objectReference: {fileID: 0}
    - target: {fileID: 5448930617850174013, guid: 6ac47267d05b143aa98fa1dd87994aad, type: 3}
      propertyPath: m_Name
      value: Room
      objectReference: {fileID: 0}
    m_RemovedComponents: []
  m_SourcePrefab: {fileID: 100100000, guid: 6ac47267d05b143aa98fa1dd87994aad, type: 3}
--- !u!1 &963194225
GameObject:
  m_ObjectHideFlags: 0
  m_CorrespondingSourceObject: {fileID: 0}
  m_PrefabInstance: {fileID: 0}
  m_PrefabAsset: {fileID: 0}
  serializedVersion: 6
  m_Component:
  - component: {fileID: 963194228}
  - component: {fileID: 963194227}
  - component: {fileID: 963194226}
  m_Layer: 0
  m_Name: Main Camera
  m_TagString: MainCamera
  m_Icon: {fileID: 0}
  m_NavMeshLayer: 0
  m_StaticEditorFlags: 0
  m_IsActive: 1
--- !u!81 &963194226
AudioListener:
  m_ObjectHideFlags: 0
  m_CorrespondingSourceObject: {fileID: 0}
  m_PrefabInstance: {fileID: 0}
  m_PrefabAsset: {fileID: 0}
  m_GameObject: {fileID: 963194225}
  m_Enabled: 1
--- !u!20 &963194227
Camera:
  m_ObjectHideFlags: 0
  m_CorrespondingSourceObject: {fileID: 0}
  m_PrefabInstance: {fileID: 0}
  m_PrefabAsset: {fileID: 0}
  m_GameObject: {fileID: 963194225}
  m_Enabled: 1
  serializedVersion: 2
  m_ClearFlags: 1
  m_BackGroundColor: {r: 0.19215687, g: 0.3019608, b: 0.4745098, a: 0}
  m_projectionMatrixMode: 1
  m_GateFitMode: 2
  m_FOVAxisMode: 0
  m_SensorSize: {x: 36, y: 24}
  m_LensShift: {x: 0, y: 0}
  m_FocalLength: 50
  m_NormalizedViewPortRect:
    serializedVersion: 2
    x: 0
    y: 0
    width: 1
    height: 1
  near clip plane: 0.3
  far clip plane: 1000
  field of view: 60
  orthographic: 0
  orthographic size: 5
  m_Depth: -1
  m_CullingMask:
    serializedVersion: 2
    m_Bits: 191
  m_RenderingPath: -1
  m_TargetTexture: {fileID: 0}
  m_TargetDisplay: 0
  m_TargetEye: 3
  m_HDR: 1
  m_AllowMSAA: 1
  m_AllowDynamicResolution: 0
  m_ForceIntoRT: 0
  m_OcclusionCulling: 1
  m_StereoConvergence: 10
  m_StereoSeparation: 0.022
--- !u!4 &963194228
Transform:
  m_ObjectHideFlags: 0
  m_CorrespondingSourceObject: {fileID: 0}
  m_PrefabInstance: {fileID: 0}
  m_PrefabAsset: {fileID: 0}
  m_GameObject: {fileID: 963194225}
  m_LocalRotation: {x: 0.18747656, y: -0.0641068, z: 0.012231925, w: 0.9800986}
  m_LocalPosition: {x: -0.08557463, y: 4.6143556, z: -7.973934}
  m_LocalScale: {x: 1, y: 1, z: 1}
  m_Children:
  - {fileID: 1047488965}
  m_Father: {fileID: 1530873379}
  m_RootOrder: 0
  m_LocalEulerAnglesHint: {x: 10.19, y: 0, z: 0}
--- !u!1 &1047488964
GameObject:
  m_ObjectHideFlags: 0
  m_CorrespondingSourceObject: {fileID: 0}
  m_PrefabInstance: {fileID: 0}
  m_PrefabAsset: {fileID: 0}
  serializedVersion: 6
  m_Component:
  - component: {fileID: 1047488965}
  - component: {fileID: 1047488967}
  - component: {fileID: 1047488966}
  m_Layer: 0
  m_Name: VFXCamera
  m_TagString: Untagged
  m_Icon: {fileID: 0}
  m_NavMeshLayer: 0
  m_StaticEditorFlags: 0
  m_IsActive: 1
--- !u!4 &1047488965
Transform:
  m_ObjectHideFlags: 0
  m_CorrespondingSourceObject: {fileID: 0}
  m_PrefabInstance: {fileID: 0}
  m_PrefabAsset: {fileID: 0}
  m_GameObject: {fileID: 1047488964}
  m_LocalRotation: {x: 0, y: 0, z: 0, w: 1}
  m_LocalPosition: {x: -13.28, y: -10.03, z: 21.81}
  m_LocalScale: {x: 1, y: 1, z: 1}
  m_Children: []
  m_Father: {fileID: 963194228}
  m_RootOrder: 0
  m_LocalEulerAnglesHint: {x: 0, y: 0, z: 0}
--- !u!81 &1047488966
AudioListener:
  m_ObjectHideFlags: 0
  m_CorrespondingSourceObject: {fileID: 0}
  m_PrefabInstance: {fileID: 0}
  m_PrefabAsset: {fileID: 0}
  m_GameObject: {fileID: 1047488964}
  m_Enabled: 1
--- !u!20 &1047488967
Camera:
  m_ObjectHideFlags: 0
  m_CorrespondingSourceObject: {fileID: 0}
  m_PrefabInstance: {fileID: 0}
  m_PrefabAsset: {fileID: 0}
  m_GameObject: {fileID: 1047488964}
  m_Enabled: 1
  serializedVersion: 2
  m_ClearFlags: 3
  m_BackGroundColor: {r: 0.19215687, g: 0.3019608, b: 0.4745098, a: 0}
  m_projectionMatrixMode: 1
  m_GateFitMode: 2
  m_FOVAxisMode: 0
  m_SensorSize: {x: 36, y: 24}
  m_LensShift: {x: 0, y: 0}
  m_FocalLength: 50
  m_NormalizedViewPortRect:
    serializedVersion: 2
    x: 0
    y: 0
    width: 1
    height: 1
  near clip plane: 0.3
  far clip plane: 1000
  field of view: 60
  orthographic: 0
  orthographic size: 5
  m_Depth: 1
  m_CullingMask:
    serializedVersion: 2
    m_Bits: 64
  m_RenderingPath: -1
  m_TargetTexture: {fileID: 0}
  m_TargetDisplay: 0
  m_TargetEye: 3
  m_HDR: 1
  m_AllowMSAA: 1
  m_AllowDynamicResolution: 0
  m_ForceIntoRT: 0
  m_OcclusionCulling: 1
  m_StereoConvergence: 10
  m_StereoSeparation: 0.022
--- !u!114 &1350794672 stripped
MonoBehaviour:
  m_CorrespondingSourceObject: {fileID: 5753723597113796712, guid: a6714b5f4b9e047ac961d036a5ae9026, type: 3}
  m_PrefabInstance: {fileID: 1611704086}
  m_PrefabAsset: {fileID: 0}
  m_GameObject: {fileID: 0}
  m_Enabled: 1
  m_EditorHideFlags: 0
  m_Script: {fileID: 11500000, guid: 3c15b2ab2a3fb4cba8f24e07005ef4e0, type: 3}
  m_Name: 
  m_EditorClassIdentifier: 
--- !u!1 &1530873378
GameObject:
  m_ObjectHideFlags: 0
  m_CorrespondingSourceObject: {fileID: 0}
  m_PrefabInstance: {fileID: 0}
  m_PrefabAsset: {fileID: 0}
  serializedVersion: 6
  m_Component:
  - component: {fileID: 1530873379}
  - component: {fileID: 1530873380}
  m_Layer: 0
  m_Name: CameraControl
  m_TagString: Untagged
  m_Icon: {fileID: 0}
  m_NavMeshLayer: 0
  m_StaticEditorFlags: 0
  m_IsActive: 1
--- !u!4 &1530873379
Transform:
  m_ObjectHideFlags: 0
  m_CorrespondingSourceObject: {fileID: 0}
  m_PrefabInstance: {fileID: 0}
  m_PrefabAsset: {fileID: 0}
  m_GameObject: {fileID: 1530873378}
  m_LocalRotation: {x: 0, y: -0.37298784, z: 0, w: 0.92783624}
  m_LocalPosition: {x: 0, y: 0, z: 6.18}
  m_LocalScale: {x: 1, y: 1, z: 1}
  m_Children:
  - {fileID: 963194228}
  m_Father: {fileID: 0}
  m_RootOrder: 4
  m_LocalEulerAnglesHint: {x: 0, y: -43.8, z: 0}
--- !u!114 &1530873380
MonoBehaviour:
  m_ObjectHideFlags: 0
  m_CorrespondingSourceObject: {fileID: 0}
  m_PrefabInstance: {fileID: 0}
  m_PrefabAsset: {fileID: 0}
  m_GameObject: {fileID: 1530873378}
  m_Enabled: 1
  m_EditorHideFlags: 0
  m_Script: {fileID: 11500000, guid: 578c8b15ca336457abf9e62e47d2557a, type: 3}
  m_Name: 
  m_EditorClassIdentifier: 
  rotateSpeed: 50
  minDistance: -1
  maxDistance: 10
  zoomSpeed: 10
--- !u!1001 &1611704086
PrefabInstance:
  m_ObjectHideFlags: 0
  serializedVersion: 2
  m_Modification:
    m_TransformParent: {fileID: 0}
    m_Modifications:
    - target: {fileID: 5753723597113796712, guid: a6714b5f4b9e047ac961d036a5ae9026, type: 3}
      propertyPath: impactPrefab.Array.size
      value: 1
      objectReference: {fileID: 0}
    - target: {fileID: 5753723597113796712, guid: a6714b5f4b9e047ac961d036a5ae9026, type: 3}
      propertyPath: muzzlePrefab.Array.size
      value: 1
      objectReference: {fileID: 0}
    - target: {fileID: 5753723597113796712, guid: a6714b5f4b9e047ac961d036a5ae9026, type: 3}
      propertyPath: impactPrefab.Array.data[0]
      value: 
      objectReference: {fileID: 4390675170917310015, guid: 38a37876063400843ad2f726a7b40189, type: 3}
    - target: {fileID: 5753723597113796712, guid: a6714b5f4b9e047ac961d036a5ae9026, type: 3}
      propertyPath: impactPrefab.Array.data[1]
      value: 
      objectReference: {fileID: 4390675170917310015, guid: a3eafb892b3374a9aa60c5d2de7b3fea, type: 3}
    - target: {fileID: 5753723597113796712, guid: a6714b5f4b9e047ac961d036a5ae9026, type: 3}
      propertyPath: muzzlePrefab.Array.data[0]
      value: 
      objectReference: {fileID: 4390675170917310015, guid: d4c0761217eb52e4d9046a8a7c0fdb8e, type: 3}
    - target: {fileID: 5753723597113796712, guid: a6714b5f4b9e047ac961d036a5ae9026, type: 3}
      propertyPath: muzzlePrefab.Array.data[1]
      value: 
      objectReference: {fileID: 4390675170917310015, guid: a3eafb892b3374a9aa60c5d2de7b3fea, type: 3}
    - target: {fileID: 5753723597113796712, guid: a6714b5f4b9e047ac961d036a5ae9026, type: 3}
      propertyPath: projectilePrefab.Array.size
      value: 2
      objectReference: {fileID: 0}
    - target: {fileID: 5753723597113796712, guid: a6714b5f4b9e047ac961d036a5ae9026, type: 3}
      propertyPath: projectilePrefab.Array.data[0]
      value: 
      objectReference: {fileID: 6368468353662903218, guid: 360beb7632f3f1045bff9318fe337439, type: 3}
    - target: {fileID: 5753723597113796712, guid: a6714b5f4b9e047ac961d036a5ae9026, type: 3}
      propertyPath: projectilePrefab.Array.data[1]
      value: 
      objectReference: {fileID: 6368468353662903218, guid: ee8af403717d12643bf2ff7ae44c7817, type: 3}
    - target: {fileID: 5753723597113796718, guid: a6714b5f4b9e047ac961d036a5ae9026, type: 3}
      propertyPath: m_Name
      value: Shooter
      objectReference: {fileID: 0}
    - target: {fileID: 5753723597113796719, guid: a6714b5f4b9e047ac961d036a5ae9026, type: 3}
      propertyPath: m_RootOrder
      value: 1
      objectReference: {fileID: 0}
    - target: {fileID: 5753723597113796719, guid: a6714b5f4b9e047ac961d036a5ae9026, type: 3}
      propertyPath: m_LocalPosition.x
      value: 0
      objectReference: {fileID: 0}
    - target: {fileID: 5753723597113796719, guid: a6714b5f4b9e047ac961d036a5ae9026, type: 3}
      propertyPath: m_LocalPosition.y
      value: 0
      objectReference: {fileID: 0}
    - target: {fileID: 5753723597113796719, guid: a6714b5f4b9e047ac961d036a5ae9026, type: 3}
      propertyPath: m_LocalPosition.z
      value: 0
      objectReference: {fileID: 0}
    - target: {fileID: 5753723597113796719, guid: a6714b5f4b9e047ac961d036a5ae9026, type: 3}
      propertyPath: m_LocalRotation.w
      value: 1
      objectReference: {fileID: 0}
    - target: {fileID: 5753723597113796719, guid: a6714b5f4b9e047ac961d036a5ae9026, type: 3}
      propertyPath: m_LocalRotation.x
      value: 0
      objectReference: {fileID: 0}
    - target: {fileID: 5753723597113796719, guid: a6714b5f4b9e047ac961d036a5ae9026, type: 3}
      propertyPath: m_LocalRotation.y
      value: 0
      objectReference: {fileID: 0}
    - target: {fileID: 5753723597113796719, guid: a6714b5f4b9e047ac961d036a5ae9026, type: 3}
      propertyPath: m_LocalRotation.z
      value: 0
      objectReference: {fileID: 0}
    - target: {fileID: 5753723597113796719, guid: a6714b5f4b9e047ac961d036a5ae9026, type: 3}
      propertyPath: m_LocalEulerAnglesHint.x
      value: 0
      objectReference: {fileID: 0}
    - target: {fileID: 5753723597113796719, guid: a6714b5f4b9e047ac961d036a5ae9026, type: 3}
      propertyPath: m_LocalEulerAnglesHint.y
      value: 0
      objectReference: {fileID: 0}
    - target: {fileID: 5753723597113796719, guid: a6714b5f4b9e047ac961d036a5ae9026, type: 3}
      propertyPath: m_LocalEulerAnglesHint.z
      value: 0
      objectReference: {fileID: 0}
    m_RemovedComponents: []
  m_SourcePrefab: {fileID: 100100000, guid: a6714b5f4b9e047ac961d036a5ae9026, type: 3}
--- !u!1001 &1709698938
PrefabInstance:
  m_ObjectHideFlags: 0
  serializedVersion: 2
  m_Modification:
    m_TransformParent: {fileID: 0}
    m_Modifications:
    - target: {fileID: 1958923139617136926, guid: 360beb7632f3f1045bff9318fe337439, type: 3}
      propertyPath: m_RootOrder
      value: 5
      objectReference: {fileID: 0}
    - target: {fileID: 1958923139617136926, guid: 360beb7632f3f1045bff9318fe337439, type: 3}
      propertyPath: m_LocalPosition.x
      value: 0
      objectReference: {fileID: 0}
    - target: {fileID: 1958923139617136926, guid: 360beb7632f3f1045bff9318fe337439, type: 3}
      propertyPath: m_LocalPosition.y
      value: 2.175
      objectReference: {fileID: 0}
    - target: {fileID: 1958923139617136926, guid: 360beb7632f3f1045bff9318fe337439, type: 3}
      propertyPath: m_LocalPosition.z
      value: 3.07
      objectReference: {fileID: 0}
    - target: {fileID: 1958923139617136926, guid: 360beb7632f3f1045bff9318fe337439, type: 3}
      propertyPath: m_LocalRotation.w
      value: 1
      objectReference: {fileID: 0}
    - target: {fileID: 1958923139617136926, guid: 360beb7632f3f1045bff9318fe337439, type: 3}
      propertyPath: m_LocalRotation.x
      value: 0
      objectReference: {fileID: 0}
    - target: {fileID: 1958923139617136926, guid: 360beb7632f3f1045bff9318fe337439, type: 3}
      propertyPath: m_LocalRotation.y
      value: 0
      objectReference: {fileID: 0}
    - target: {fileID: 1958923139617136926, guid: 360beb7632f3f1045bff9318fe337439, type: 3}
      propertyPath: m_LocalRotation.z
      value: 0
      objectReference: {fileID: 0}
    - target: {fileID: 1958923139617136926, guid: 360beb7632f3f1045bff9318fe337439, type: 3}
      propertyPath: m_LocalEulerAnglesHint.x
      value: 0
      objectReference: {fileID: 0}
    - target: {fileID: 1958923139617136926, guid: 360beb7632f3f1045bff9318fe337439, type: 3}
      propertyPath: m_LocalEulerAnglesHint.y
      value: 0
      objectReference: {fileID: 0}
    - target: {fileID: 1958923139617136926, guid: 360beb7632f3f1045bff9318fe337439, type: 3}
      propertyPath: m_LocalEulerAnglesHint.z
      value: 0
      objectReference: {fileID: 0}
    - target: {fileID: 6368468353662903218, guid: 360beb7632f3f1045bff9318fe337439, type: 3}
      propertyPath: m_Name
      value: FireBall
      objectReference: {fileID: 0}
    - target: {fileID: 6368468353662903218, guid: 360beb7632f3f1045bff9318fe337439, type: 3}
      propertyPath: m_IsActive
      value: 0
      objectReference: {fileID: 0}
    m_RemovedComponents: []
  m_SourcePrefab: {fileID: 100100000, guid: 360beb7632f3f1045bff9318fe337439, type: 3}
--- !u!1001 &2367030001071829755
PrefabInstance:
  m_ObjectHideFlags: 0
  serializedVersion: 2
  m_Modification:
    m_TransformParent: {fileID: 0}
    m_Modifications:
    - target: {fileID: 2367030000760223114, guid: 4a7908541259f4d08a5f782047d2437a, type: 3}
      propertyPath: m_RootOrder
      value: 0
      objectReference: {fileID: 0}
    - target: {fileID: 2367030000760223114, guid: 4a7908541259f4d08a5f782047d2437a, type: 3}
      propertyPath: m_LocalPosition.x
      value: 2.67
      objectReference: {fileID: 0}
    - target: {fileID: 2367030000760223114, guid: 4a7908541259f4d08a5f782047d2437a, type: 3}
      propertyPath: m_LocalPosition.y
      value: 0.25
      objectReference: {fileID: 0}
    - target: {fileID: 2367030000760223114, guid: 4a7908541259f4d08a5f782047d2437a, type: 3}
      propertyPath: m_LocalPosition.z
      value: 11.87
      objectReference: {fileID: 0}
    - target: {fileID: 2367030000760223114, guid: 4a7908541259f4d08a5f782047d2437a, type: 3}
      propertyPath: m_LocalRotation.w
      value: 0.6279767
      objectReference: {fileID: 0}
    - target: {fileID: 2367030000760223114, guid: 4a7908541259f4d08a5f782047d2437a, type: 3}
      propertyPath: m_LocalRotation.x
      value: -0
      objectReference: {fileID: 0}
    - target: {fileID: 2367030000760223114, guid: 4a7908541259f4d08a5f782047d2437a, type: 3}
      propertyPath: m_LocalRotation.y
      value: 0.7782322
      objectReference: {fileID: 0}
    - target: {fileID: 2367030000760223114, guid: 4a7908541259f4d08a5f782047d2437a, type: 3}
      propertyPath: m_LocalRotation.z
      value: -0
      objectReference: {fileID: 0}
    - target: {fileID: 2367030000760223114, guid: 4a7908541259f4d08a5f782047d2437a, type: 3}
      propertyPath: m_LocalEulerAnglesHint.x
      value: 0
      objectReference: {fileID: 0}
    - target: {fileID: 2367030000760223114, guid: 4a7908541259f4d08a5f782047d2437a, type: 3}
      propertyPath: m_LocalEulerAnglesHint.y
      value: 102.198
      objectReference: {fileID: 0}
    - target: {fileID: 2367030000760223114, guid: 4a7908541259f4d08a5f782047d2437a, type: 3}
      propertyPath: m_LocalEulerAnglesHint.z
      value: 0
      objectReference: {fileID: 0}
    - target: {fileID: 2367030000760223124, guid: 4a7908541259f4d08a5f782047d2437a, type: 3}
      propertyPath: m_Enabled
      value: 0
      objectReference: {fileID: 0}
    - target: {fileID: 2367030000760223125, guid: 4a7908541259f4d08a5f782047d2437a, type: 3}
      propertyPath: m_Enabled
      value: 1
      objectReference: {fileID: 0}
    - target: {fileID: 2367030000760223126, guid: 4a7908541259f4d08a5f782047d2437a, type: 3}
      propertyPath: m_Name
      value: Target
      objectReference: {fileID: 0}
    - target: {fileID: 2367030000760223126, guid: 4a7908541259f4d08a5f782047d2437a, type: 3}
      propertyPath: m_Layer
      value: 0
      objectReference: {fileID: 0}
    - target: {fileID: 4159626713812670688, guid: 4a7908541259f4d08a5f782047d2437a, type: 3}
      propertyPath: m_Layer
      value: 0
      objectReference: {fileID: 0}
    m_RemovedComponents: []
  m_SourcePrefab: {fileID: 100100000, guid: 4a7908541259f4d08a5f782047d2437a, type: 3}
